^C:\USERS\ANNASVINTSITSKA\SOURCE\REPOS\AK-6\TASK1\DEBUG\TASK1.OBJ
C:\USERS\ANNASVINTSITSKA\SOURCE\REPOS\AK-6\DEBUG\TASK1.EXE
C:\USERS\ANNASVINTSITSKA\SOURCE\REPOS\AK-6\TASK1\DEBUG\TASK1.ILK
C:\USERS\ANNASVINTSITSKA\SOURCE\REPOS\AK-6\DEBUG\TASK1.PDB
