﻿  Task1.cpp
C:\Users\annasvintsitska\source\repos\AK-6\Task1\Task1.cpp(12,26): warning C4477: 'scanf_s' : format string '%d' requires an argument of type 'int *', but variadic argument 1 has type 'signed char *'
C:\Users\annasvintsitska\source\repos\AK-6\Task1\Task1.cpp(12,26): message : consider using '%hhd' in the format string
C:\Users\annasvintsitska\source\repos\AK-6\Task1\Task1.cpp(13,26): warning C4477: 'scanf_s' : format string '%d' requires an argument of type 'int *', but variadic argument 1 has type 'signed char *'
C:\Users\annasvintsitska\source\repos\AK-6\Task1\Task1.cpp(13,26): message : consider using '%hhd' in the format string
  Task1.vcxproj -> C:\Users\annasvintsitska\source\repos\AK-6\Debug\Task1.exe
